object={
	name="tree_cypress_generator_1_0"
	clamp_to_water_level=no
	render_under_water=no
	generated_content=yes
	layer="tree_layer"
	pdxmesh="tree_cypress_01_mesh"
	count=170
	transform="708.502747 0.000000 2935.775391 0.000000 0.209492 0.000000 -0.977810 0.938502 0.938502 0.938502
719.378418 0.000000 2943.210449 0.000000 0.484583 0.000000 0.874745 0.691529 0.691529 0.691529
711.583801 0.000000 2942.866943 0.000000 0.291635 0.000000 0.956530 0.670144 0.670144 0.670144
716.467712 0.000000 2936.810303 0.000000 0.012166 0.000000 -0.999926 0.958761 0.958761 0.958761
705.434570 0.000000 2940.645264 0.000000 0.503203 0.000000 -0.864168 0.906290 0.906290 0.906290
712.259155 0.000000 2938.518311 0.000000 0.784745 0.000000 -0.619818 0.868094 0.868094 0.868094
708.807495 0.000000 2939.359375 0.000000 0.697891 0.000000 0.716204 0.718681 0.718681 0.718681
721.590759 0.000000 2940.301514 0.000000 0.832335 0.000000 0.554273 0.740159 0.740159 0.740159
715.220032 0.000000 2961.401123 0.000000 0.468755 0.000000 -0.883328 0.910305 0.910305 0.910305
719.272156 0.000000 2950.241943 0.000000 0.993001 0.000000 0.118109 0.787941 0.787941 0.787941
717.689941 0.000000 2956.068848 0.000000 0.625434 0.000000 -0.780277 0.891175 0.891175 0.891175
707.892761 0.000000 2943.919189 0.000000 0.668389 0.000000 -0.743812 0.885435 0.885435 0.885435
716.976807 0.000000 2952.654785 0.000000 0.648004 0.000000 -0.761637 0.888193 0.888193 0.888193
721.214478 0.000000 2944.440186 0.000000 0.685357 0.000000 0.728207 0.716913 0.716913 0.716913
719.962524 0.000000 2955.284424 0.000000 0.710396 0.000000 -0.703802 0.879525 0.879525 0.879525
725.202759 0.000000 2948.199707 0.000000 0.757278 0.000000 -0.653093 0.872489 0.872489 0.872489
720.496460 0.000000 2949.416992 0.000000 0.997264 0.000000 -0.073917 0.807536 0.807536 0.807536
1392.779053 0.000000 3029.369385 0.000000 0.794546 0.000000 0.607204 0.733533 0.733533 0.733533
1392.192749 0.000000 3034.494873 0.000000 0.979915 0.000000 0.199415 0.779551 0.779551 0.779551
1395.447021 0.000000 3037.191162 0.000000 0.298050 0.000000 -0.954550 0.929172 0.929172 0.929172
1395.664917 0.000000 3030.010498 0.000000 0.460803 0.000000 -0.887502 0.911220 0.911220 0.911220
1393.672974 0.000000 3032.029785 0.000000 0.753805 0.000000 -0.657098 0.873029 0.873029 0.873029
1394.781494 0.000000 3034.780273 0.000000 0.985501 0.000000 -0.169669 0.817366 0.817366 0.817366
1397.755005 0.000000 3037.645264 0.000000 0.664443 0.000000 0.747339 0.714026 0.714026 0.714026
1396.889526 0.000000 3034.876709 0.000000 0.648045 0.000000 0.761602 0.711812 0.711812 0.711812
1397.498047 0.000000 3030.200928 0.000000 0.014731 0.000000 0.999892 0.641501 0.641501 0.641501
1395.208252 0.000000 3031.569824 0.000000 0.863160 0.000000 -0.504930 0.853914 0.853914 0.853914
1394.803467 0.000000 3033.180176 0.000000 0.761234 0.000000 0.648477 0.728130 0.728130 0.728130
1396.753662 0.000000 3036.456543 0.000000 0.918639 0.000000 0.395099 0.758627 0.758627 0.758627
1397.839233 0.000000 3032.741211 0.000000 0.277892 0.000000 -0.960612 0.931317 0.931317 0.931317
1399.109497 0.000000 3037.389893 0.000000 0.020183 0.000000 -0.999796 0.957944 0.957944 0.957944
1395.740601 0.000000 3035.658691 0.000000 0.839436 0.000000 0.543459 0.741477 0.741477 0.741477
1398.158691 0.000000 3034.743408 0.000000 0.679754 0.000000 -0.733440 0.883868 0.883868 0.883868
1397.281372 0.000000 3033.777832 0.000000 0.868430 0.000000 -0.495812 0.852841 0.852841 0.852841
1397.893188 0.000000 3036.401123 0.000000 0.933463 0.000000 0.358674 0.762633 0.762633 0.762633
1396.570801 0.000000 3037.618408 0.000000 0.903768 0.000000 -0.428023 0.845053 0.845053 0.845053
1397.561279 0.000000 3035.513428 0.000000 0.813637 0.000000 -0.581373 0.863195 0.863195 0.863195
1400.069580 0.000000 3033.212158 0.000000 0.884778 0.000000 -0.466012 0.849379 0.849379 0.849379
1399.914185 0.000000 3031.042236 0.000000 0.593249 0.000000 -0.805019 0.895310 0.895310 0.895310
1399.920044 0.000000 3036.907715 0.000000 0.989188 0.000000 0.146651 0.785008 0.785008 0.785008
1401.148071 0.000000 3040.416748 0.000000 0.987871 0.000000 -0.155278 0.815881 0.815881 0.815881
1435.149658 0.000000 3057.377686 0.000000 0.354394 0.000000 -0.935096 0.923100 0.923100 0.923100
1429.239624 0.000000 3055.221680 0.000000 0.070997 0.000000 -0.997477 0.952762 0.952762 0.952762
1437.619629 0.000000 3052.045410 0.000000 0.364725 0.000000 -0.931115 0.921972 0.921972 0.921972
1435.922607 0.000000 3054.370117 0.000000 0.559720 0.000000 0.828682 0.700509 0.700509 0.700509
1430.071899 0.000000 3052.816895 0.000000 0.369255 0.000000 0.929328 0.678524 0.678524 0.678524
1433.177979 0.000000 3055.774658 0.000000 0.358166 0.000000 0.933658 0.677311 0.677311 0.677311
1431.256958 0.000000 3054.859375 0.000000 0.281146 0.000000 0.959665 0.669029 0.669029 0.669029
1431.606079 0.000000 3053.264893 0.000000 0.987997 0.000000 0.154472 0.784202 0.784202 0.784202
1440.089233 0.000000 3056.726318 0.000000 0.359280 0.000000 0.933230 0.677433 0.677433 0.677433
1445.272583 0.000000 3056.380127 0.000000 0.889091 0.000000 -0.457730 0.848428 0.848428 0.848428
1453.807007 0.000000 3053.638428 0.000000 0.405540 0.000000 -0.914077 0.917467 0.917467 0.917467
1444.909180 0.000000 3060.004395 0.000000 0.999532 0.000000 0.030597 0.796883 0.796883 0.796883
1447.392090 0.000000 3054.848389 0.000000 0.553577 0.000000 -0.832798 0.900244 0.900244 0.900244
1442.490601 0.000000 3056.779297 0.000000 0.028634 0.000000 0.999590 0.642917 0.642917 0.642917
1446.972778 0.000000 3058.937500 0.000000 0.983781 0.000000 0.179373 0.781630 0.781630 0.781630
1443.910034 0.000000 3058.227295 0.000000 0.166330 0.000000 0.986070 0.657021 0.657021 0.657021
1446.937622 0.000000 3057.098389 0.000000 0.975856 0.000000 0.218415 0.777572 0.777572 0.777572
1450.836304 0.000000 3057.450195 0.000000 0.559502 0.000000 -0.828829 0.899518 0.899518 0.899518
1445.526733 0.000000 3058.056152 0.000000 0.899316 0.000000 0.437300 0.753899 0.753899 0.753899
1448.635498 0.000000 3055.736572 0.000000 0.530753 0.000000 -0.847527 0.903011 0.903011 0.903011
1450.946655 0.000000 3054.766357 0.000000 0.244495 0.000000 0.969651 0.665159 0.665159 0.665159
1448.591919 0.000000 3054.270020 0.000000 0.864696 0.000000 0.502295 0.746396 0.746396 0.746396
2391.419678 0.000000 2686.929443 0.000000 0.070596 0.000000 -0.997505 0.952803 0.952803 0.952803
2396.303711 0.000000 2680.872803 0.000000 0.999286 0.000000 0.037788 0.796150 0.796150 0.796150
2392.094971 0.000000 2682.580811 0.000000 0.261375 0.000000 -0.965237 0.933064 0.933064 0.933064
2395.349365 0.000000 2685.277100 0.000000 0.480340 0.000000 0.877082 0.691036 0.691036 0.691036
2398.745605 0.000000 2683.813477 0.000000 0.174836 0.000000 0.984598 0.657901 0.657901 0.657901
2392.931396 0.000000 2684.914063 0.000000 0.953244 0.000000 0.302202 0.768729 0.768729 0.768729
2438.233887 0.000000 2676.701904 0.000000 0.873562 0.000000 0.486713 0.748223 0.748223 0.748223
2441.664063 0.000000 2678.218262 0.000000 0.806283 0.000000 -0.591529 0.864472 0.864472 0.864472
2446.780273 0.000000 2682.741211 0.000000 0.997369 0.000000 0.072498 0.792609 0.792609 0.792609
2447.971680 0.000000 2680.039063 0.000000 0.956026 0.000000 -0.293283 0.830319 0.830319 0.830319
2357.529785 0.000000 2700.131348 0.000000 0.671915 0.000000 -0.740629 0.884951 0.884951 0.884951
2353.137451 0.000000 2701.369141 0.000000 0.450403 0.000000 0.892825 0.687590 0.687590 0.687590
2351.606689 0.000000 2705.937744 0.000000 0.901045 0.000000 -0.433725 0.845696 0.845696 0.845696
2382.726807 0.000000 2693.986084 0.000000 0.988303 0.000000 0.152500 0.784406 0.784406 0.784406
2379.096680 0.000000 2691.701904 0.000000 0.904768 0.000000 0.425905 0.755186 0.755186 0.755186
2344.017822 0.000000 2721.241943 0.000000 0.189739 0.000000 0.981835 0.659445 0.659445 0.659445
2393.521240 0.000000 2760.476318 0.000000 0.977486 0.000000 0.211000 0.778345 0.778345 0.778345
2399.108154 0.000000 2758.288818 0.000000 0.977811 0.000000 -0.209491 0.821498 0.821498 0.821498
2382.726807 0.000000 2757.970459 0.000000 0.466875 0.000000 -0.884323 0.910522 0.910522 0.910522
2513.509521 0.000000 2696.491943 0.000000 0.651669 0.000000 -0.758504 0.887702 0.887702 0.887702
2491.661377 0.000000 2692.260986 0.000000 0.595114 0.000000 -0.803641 0.895074 0.895074 0.895074
2504.559326 0.000000 2699.138672 0.000000 0.045521 0.000000 0.998963 0.644638 0.644638 0.644638
2516.801025 0.000000 2696.717285 0.000000 0.379717 0.000000 0.925103 0.679673 0.679673 0.679673
2528.176270 0.000000 2741.216064 0.000000 0.725090 0.000000 0.688654 0.722625 0.722625 0.722625
2528.715576 0.000000 2737.437988 0.000000 0.202358 0.000000 -0.979312 0.939245 0.939245 0.939245
2433.517334 0.000000 2760.476318 0.000000 0.082314 0.000000 -0.996606 0.951606 0.951606 0.951606
2435.052002 0.000000 2769.447998 0.000000 0.906157 0.000000 -0.422942 0.844481 0.844481 0.844481
2438.336426 0.000000 2768.183838 0.000000 0.030633 0.000000 -0.999531 0.956879 0.956879 0.956879
2439.991699 0.000000 2768.796631 0.000000 0.374801 0.000000 -0.927105 0.920868 0.920868 0.920868
2456.874268 0.000000 2768.451660 0.000000 0.612660 0.000000 0.790347 0.707168 0.707168 0.707168
2449.746094 0.000000 2765.926270 0.000000 0.710022 0.000000 0.704179 0.720421 0.720421 0.720421
2445.174805 0.000000 2768.450439 0.000000 0.868951 0.000000 -0.494897 0.852734 0.852734 0.852734
2473.125732 0.000000 2765.353516 0.000000 0.992494 0.000000 0.122293 0.787512 0.787512 0.787512
2446.163086 0.000000 2764.562744 0.000000 0.617014 0.000000 0.786952 0.707731 0.707731 0.707731
2460.635010 0.000000 2752.772461 0.000000 0.957963 0.000000 -0.286892 0.829639 0.829639 0.829639
2491.661377 0.000000 2756.245361 0.000000 0.865535 0.000000 0.500848 0.746567 0.746567 0.746567
2484.253662 0.000000 2761.071777 0.000000 0.655501 0.000000 -0.755194 0.887186 0.887186 0.887186
2516.471436 0.000000 2754.030029 0.000000 0.279007 0.000000 0.960289 0.668802 0.668802 0.668802
2488.900635 0.000000 2760.155029 0.000000 0.977179 0.000000 0.212416 0.778197 0.778197 0.778197
2493.705322 0.000000 2765.708740 0.000000 0.533862 0.000000 -0.845571 0.902637 0.902637 0.902637
2519.245605 0.000000 2754.731445 0.000000 0.586670 0.000000 0.809826 0.703860 0.703860 0.703860
2521.038574 0.000000 2752.487061 0.000000 0.989597 0.000000 0.143868 0.785295 0.785295 0.785295
2529.738281 0.000000 2765.926270 0.000000 0.622377 0.000000 -0.782717 0.891573 0.891573 0.891573
2542.711182 0.000000 2757.970459 0.000000 0.439179 0.000000 -0.898400 0.913686 0.913686 0.913686
2520.320801 0.000000 2757.463867 0.000000 0.994275 0.000000 0.106851 0.789095 0.789095 0.789095
2528.896729 0.000000 2760.155029 0.000000 0.212924 0.000000 0.977069 0.661856 0.661856 0.661856
2539.081055 0.000000 2755.686279 0.000000 0.999669 0.000000 0.025731 0.797379 0.797379 0.797379
2533.701416 0.000000 2765.708740 0.000000 0.270976 0.000000 -0.962586 0.932049 0.932049 0.932049
2535.332031 0.000000 2755.092529 0.000000 0.884039 0.000000 0.467414 0.750459 0.750459 0.750459
2528.735840 0.000000 2763.119385 0.000000 0.379661 0.000000 -0.925126 0.920333 0.920333 0.920333
1349.168213 0.000000 3210.387939 0.000000 0.781640 0.000000 -0.623730 0.868603 0.868603 0.868603
1345.214233 0.000000 3205.483154 0.000000 0.062202 0.000000 -0.998064 0.953660 0.953660 0.953660
1343.297485 0.000000 3207.988525 0.000000 0.961393 0.000000 0.275179 0.771604 0.771604 0.771604
1343.167358 0.000000 3209.912598 0.000000 0.077084 0.000000 0.997025 0.647860 0.647860 0.647860
1345.029419 0.000000 3209.462402 0.000000 0.162275 0.000000 -0.986745 0.943397 0.943397 0.943397
1345.421509 0.000000 3204.047363 0.000000 0.546371 0.000000 0.837544 0.698877 0.698877 0.698877
1371.770630 0.000000 3204.135986 0.000000 0.030385 0.000000 0.999538 0.643095 0.643095 0.643095
1372.787109 0.000000 3199.703857 0.000000 0.838362 0.000000 -0.545114 0.858724 0.858724 0.858724
1370.381470 0.000000 3201.235596 0.000000 0.994402 0.000000 -0.105664 0.810783 0.810783 0.810783
1291.778442 0.000000 3300.112549 0.000000 0.224943 0.000000 -0.974372 0.936890 0.936890 0.936890
1293.244263 0.000000 3305.777588 0.000000 0.980969 0.000000 0.194162 0.780096 0.780096 0.780096
1295.453003 0.000000 3298.959717 0.000000 0.982219 0.000000 -0.187738 0.819237 0.819237 0.819237
1294.888916 0.000000 3302.772217 0.000000 0.540640 0.000000 0.841254 0.698182 0.698182 0.698182
2572.854004 0.000000 2748.859131 0.000000 0.603632 0.000000 -0.797263 0.893990 0.893990 0.893990
2568.217773 0.000000 2749.930420 0.000000 0.081065 0.000000 -0.996709 0.951734 0.951734 0.951734
2601.407227 0.000000 2748.348389 0.000000 0.724193 0.000000 -0.689598 0.877508 0.877508 0.877508
2606.764648 0.000000 2746.725586 0.000000 0.999970 0.000000 -0.007804 0.800795 0.800795 0.800795
2603.756348 0.000000 2746.585938 0.000000 0.034793 0.000000 -0.999395 0.956455 0.956455 0.956455
2593.501709 0.000000 2760.476318 0.000000 0.801967 0.000000 -0.597368 0.865212 0.865212 0.865212
2583.994385 0.000000 2753.234131 0.000000 0.980744 0.000000 -0.195297 0.820022 0.820022 0.820022
2561.034668 0.000000 2752.487061 0.000000 0.566719 0.000000 -0.823911 0.898628 0.898628 0.898628
2578.002197 0.000000 2760.016602 0.000000 0.988316 0.000000 -0.152418 0.815586 0.815586 0.815586
2567.334473 0.000000 2751.928223 0.000000 0.694257 0.000000 -0.719727 0.881835 0.881835 0.881835
2582.707275 0.000000 2757.970459 0.000000 0.849426 0.000000 -0.527708 0.856623 0.856623 0.856623
2593.484619 0.000000 2756.478760 0.000000 0.999995 0.000000 0.003156 0.799679 0.799679 0.799679
2574.763916 0.000000 2758.905029 0.000000 0.914340 0.000000 0.404947 0.757533 0.757533 0.757533
2564.222900 0.000000 2752.521729 0.000000 0.993691 0.000000 -0.112155 0.811448 0.811448 0.811448
2590.468018 0.000000 2759.570557 0.000000 0.165296 0.000000 0.986244 0.656915 0.656915 0.656915
2601.030762 0.000000 2752.487061 0.000000 0.828944 0.000000 0.559331 0.739539 0.739539 0.739539
2628.315186 0.000000 2807.806641 0.000000 0.954636 0.000000 -0.297776 0.830798 0.830798 0.830798
2624.547607 0.000000 2795.115234 0.000000 0.699531 0.000000 -0.714603 0.881086 0.881086 0.881086
2629.122314 0.000000 2799.284180 0.000000 0.633412 0.000000 -0.773815 0.890129 0.890129 0.890129
2619.916992 0.000000 2796.740723 0.000000 0.954503 0.000000 0.298200 0.769156 0.769156 0.769156
2628.218750 0.000000 2803.494141 0.000000 0.878949 0.000000 -0.476915 0.850638 0.850638 0.850638
2624.864990 0.000000 2798.955322 0.000000 0.547693 0.000000 0.836680 0.699038 0.699038 0.699038
2620.532227 0.000000 2800.617920 0.000000 0.679811 0.000000 0.733387 0.716140 0.716140 0.716140
2626.657227 0.000000 2801.129395 0.000000 0.536113 0.000000 0.844146 0.697635 0.697635 0.697635
2675.028564 0.000000 2833.432373 0.000000 0.660635 0.000000 0.750708 0.713508 0.713508 0.713508
2644.238037 0.000000 2825.056152 0.000000 0.998948 0.000000 -0.045864 0.804673 0.804673 0.804673
2669.118408 0.000000 2831.276367 0.000000 0.836586 0.000000 -0.547836 0.859055 0.859055 0.859055
2653.111572 0.000000 2825.894775 0.000000 0.498838 0.000000 0.866695 0.693197 0.693197 0.693197
2648.885010 0.000000 2824.139404 0.000000 0.397129 0.000000 0.917763 0.681598 0.681598 0.681598
2678.210449 0.000000 2836.662842 0.000000 0.815366 0.000000 -0.578946 0.862891 0.862891 0.862891
2671.575439 0.000000 2833.906494 0.000000 0.975148 0.000000 -0.221556 0.822756 0.822756 0.822756
2646.227539 0.000000 2822.871582 0.000000 0.856358 0.000000 -0.516383 0.855271 0.855271 0.855271
2651.303223 0.000000 2827.824707 0.000000 0.119636 0.000000 0.992818 0.652215 0.652215 0.652215
2650.841797 0.000000 2825.436035 0.000000 0.932620 0.000000 0.360859 0.762395 0.762395 0.762395
2692.842285 0.000000 2844.835693 0.000000 0.504299 0.000000 -0.863529 0.906160 0.906160 0.906160
2679.968262 0.000000 2832.781006 0.000000 0.637865 0.000000 0.770148 0.710458 0.710458 0.710458
2711.388428 0.000000 2846.890381 0.000000 0.820059 0.000000 0.572279 0.737939 0.737939 0.737939
2705.239258 0.000000 2844.668701 0.000000 0.990126 0.000000 0.140177 0.785675 0.785675 0.785675
2690.997070 0.000000 2840.917480 0.000000 0.564069 0.000000 -0.825728 0.898955 0.898955 0.898955
2701.409912 0.000000 2846.260986 0.000000 0.680477 0.000000 -0.732770 0.883767 0.883767 0.883767
2695.954590 0.000000 2842.274658 0.000000 0.984377 0.000000 -0.176075 0.818029 0.818029 0.818029
2703.876709 0.000000 2847.152344 0.000000 0.581239 0.000000 -0.813733 0.896822 0.896822 0.896822
2703.982666 0.000000 2849.210693 0.000000 0.602832 0.000000 -0.797868 0.894092 0.894092 0.894092
2707.697510 0.000000 2847.942627 0.000000 0.969266 0.000000 0.246016 0.774681 0.774681 0.774681
"}
