﻿levantine_philosophy_2 = { 
	color = hsv { 2.7 0.6 0.5 }
	image = levantine_philosophy_start_bonus
	

	allow = {
		trigger_if = {
			limit = { country_culture_group = levantine }
			custom_tooltip = {
				text = "began_with_tradition_group"
			}
			country_culture_group = levantine
		}
		trigger_else = {
			always = no
		}
	}

	levantine_arabian_path_2 = { ###Levantine 1A
		modifier = { 
			ship_cost = -0.15
			global_state_trade_routes = 0.15
		}
		icon = levantine_philosophy_start_bonus
		requires = {}
		on_activate = {
			ordered_owned_province = {	#Upgrades a port, or creates one
				limit = {
					owner = { num_of_ports < 1 }
					is_coastal = yes
					NOT = { has_building = port_building }
					can_build_building = port_building
				}
				alternative_limit = {
					is_coastal = yes
					has_building = port_building
					can_build_building = port_building
				}
				alternative_limit = {
					is_coastal = yes
					can_build_building = port_building
				}
				order_by = total_population
				add_building_level = port_building
				add_building_level = port_building
			}
		}
	}

	levantine_greek_enable = { ###Levantine 2AA
		icon = greek_antigonid_path_2
		modifier = {
			coastal_terrain_combat_bonus = 0.05
		}
		requires = { levantine_arabian_path_2 levantine_greco_path_4 }
	}

	levantine_arabian_path_5 = { ###Levantine 2AB
		modifier = { 
			naval_damage_taken = -0.1
		}
		allow_unit_type = octere
		icon = levantine_arabian_path_5
		requires = {levantine_arabian_path_2}
		on_activate = {
			random_owned_province = {
				limit = {
					num_of_port_building > 0 
				}
				owner = {
					create_unit = {
						navy = yes
						location = prev.prev
						add_subunit = octere
						add_subunit = octere
					}
				}
			}
		}
	}

	levantine_greco_path_6 = { ###Levantine 3A
		modifier = { 
			naval_damage_done = 0.15
		}
		icon = levantine_greco_path_6
		requires = {levantine_arabian_path_5 }
	}

	levantine_egyptian_path_2 = { ###Levantine 4A
		modifier = { 
			ocean_combat_bonus = 0.05
			global_ship_recruit_speed = 0.15
		}
		allow_unit_type = mega_galley
		icon = levantine_egyptian_path_2
		requires = {levantine_greco_path_6}
		on_activate = {
			random_owned_province = {
				limit = {
					num_of_port_building > 0 
				}
				owner = {
					create_unit = {
						navy = yes
						location = prev.prev
						add_subunit = mega_galley
					}
				}
			}
		}
	}

	levantine_egyptian_path_5 = { ###Levantine 5A
		modifier = { 
			octere_cost = -0.15
			mega_galley_cost = -0.15
			coastal_terrain_combat_bonus = 0.1
			riverine_terrain_combat_bonus = 0.1
		}
		icon = levantine_egyptian_path_5
		requires = {levantine_egyptian_path_2}
	}

	levantine_greco_path_4 = { ###Levantine 1B
		modifier = { discipline = 0.02 }
		enable_tactic = greek_phalanx
		icon = levantine_greco_path_4
		requires = {}
	}

	levantine_egyptian_path_1 = { ###Levantine 2BA
		modifier = {
			light_infantry_discipline = 0.1
		}
		icon = levantine_egyptian_path_1
		requires = {levantine_greco_path_4}
		on_activate = {
			custom_tooltip = "create_high_martial_rising_star"
			hidden_effect = {
				create_character = {
					add_martial = 8
					add_trait = steadfast
				}
			}
		}
	}

	levantine_greco_path_1 = { ###Levantine 2BB
		modifier = {
			heavy_infantry_cost = -0.15
		}
		icon = levantine_greco_path_1
		requires = {levantine_greco_path_4}
	}

	levantine_greco_path_2 = { ###Levantine 3BA
		modifier = {
			light_infantry_morale = 0.1
		}
		icon = levantine_greco_path_2
		requires = {levantine_egyptian_path_1}
	}

	levantine_greco_path_3 = { ###Levantine 3BB
		modifier = {
			heavy_infantry_offensive = 0.1
		}
		icon = levantine_greco_path_3
		requires = {levantine_greco_path_1}
		
	}

	levantine_egyptian_path_end_bonus = { ###Levantine 4BA
		modifier = {
			light_infantry_offensive = 0.15
			light_infantry_defensive = 0.15
		}
		icon = levantine_egyptian_path_end_bonus
		requires = {levantine_greco_path_2}
	}

	levantine_greco_path_end_bonus = { ###Levantine 4BB
		modifier = {
			heavy_infantry_discipline = 0.1
		}
		icon = levantine_greco_path_end_bonus
		requires = {levantine_greco_path_3}
		on_activate = {
			custom_tooltip = "create_high_martial_rising_star"
			hidden_effect = {
				create_character = {
					add_martial = 8
					add_trait = steadfast
				}
			}
		}
	}
}