game_object_locator={
	name="pyramid_2"
	clamp_to_water_level=no
	render_under_water=no
	generated_content=no
	layer=""
	instances={
		{
			id=117
			position={ 2012.000000 0.000000 141.000000 }
			rotation={ -0.000000 -0.000000 -0.000000 1.000000 }
			scale={ 1.000000 1.000000 1.000000 }
		}
		{
			id=340
			position={ 2040.000000 0.000000 1428.000000 }
			rotation={ -0.000000 -0.000000 -0.000000 1.000000 }
			scale={ 1.000000 1.000000 1.000000 }
		}
		{
			id=371
			position={ 2026.000000 0.000000 1579.000000 }
			rotation={ -0.000000 -0.000000 -0.000000 1.000000 }
			scale={ 1.000000 1.000000 1.000000 }
		}
		{
			id=394
			position={ 2067.000000 0.000000 1390.000000 }
			rotation={ -0.000000 -0.000000 -0.000000 1.000000 }
			scale={ 1.000000 1.000000 1.000000 }
		}
		{
			id=470
			position={ 2089.000000 0.000000 1380.000000 }
			rotation={ -0.000000 -0.000000 -0.000000 1.000000 }
			scale={ 1.000000 1.000000 1.000000 }
		}
		{
			id=540
			position={ 2024.000000 0.000000 1554.000000 }
			rotation={ -0.000000 -0.000000 -0.000000 1.000000 }
			scale={ 1.000000 1.000000 1.000000 }
		}
		{
			id=542
			position={ 2039.000000 0.000000 1495.000000 }
			rotation={ -0.000000 -0.000000 -0.000000 1.000000 }
			scale={ 1.000000 1.000000 1.000000 }
		}
		{
			id=544
			position={ 2028.000000 0.000000 1532.000000 }
			rotation={ -0.000000 -0.000000 -0.000000 1.000000 }
			scale={ 1.000000 1.000000 1.000000 }
		}
		{
			id=594
			position={ 2032.000000 0.000000 1597.000000 }
			rotation={ -0.000000 -0.000000 -0.000000 1.000000 }
			scale={ 1.000000 1.000000 1.000000 }
		}
		{
			id=1187
			position={ 2050.000000 0.000000 1925.000000 }
			rotation={ -0.000000 -0.000000 -0.000000 1.000000 }
			scale={ 1.000000 1.000000 1.000000 }
		}
		{
			id=1197
			position={ 1990.000000 0.000000 294.000000 }
			rotation={ -0.000000 -0.000000 -0.000000 1.000000 }
			scale={ 1.000000 1.000000 1.000000 }
		}
		{
			id=1235
			position={ 2305.000000 0.000000 622.000000 }
			rotation={ -0.000000 -0.000000 -0.000000 1.000000 }
			scale={ 1.000000 1.000000 1.000000 }
		}
		{
			id=1255
			position={ 2131.000000 0.000000 464.000000 }
			rotation={ -0.000000 -0.000000 -0.000000 1.000000 }
			scale={ 1.000000 1.000000 1.000000 }
		}
		{
			id=1281
			position={ 2360.000000 0.000000 629.000000 }
			rotation={ -0.000000 -0.000000 -0.000000 1.000000 }
			scale={ 1.000000 1.000000 1.000000 }
		}
		{
			id=1299
			position={ 2370.000000 0.000000 652.000000 }
			rotation={ -0.000000 -0.000000 -0.000000 1.000000 }
			scale={ 1.000000 1.000000 1.000000 }
		}
		{
			id=1310
			position={ 1969.000000 0.000000 280.000000 }
			rotation={ -0.000000 -0.000000 -0.000000 1.000000 }
			scale={ 1.000000 1.000000 1.000000 }
		}
		{
			id=1315
			position={ 2344.000000 0.000000 616.000000 }
			rotation={ -0.000000 -0.000000 -0.000000 1.000000 }
			scale={ 1.000000 1.000000 1.000000 }
		}
		{
			id=1318
			position={ 2326.000000 0.000000 605.000000 }
			rotation={ -0.000000 -0.000000 -0.000000 1.000000 }
			scale={ 1.000000 1.000000 1.000000 }
		}
		{
			id=1336
			position={ 2119.000000 0.000000 440.000000 }
			rotation={ -0.000000 -0.000000 -0.000000 1.000000 }
			scale={ 1.000000 1.000000 1.000000 }
		}
		{
			id=1392
			position={ 1984.000000 0.000000 140.000000 }
			rotation={ -0.000000 -0.000000 -0.000000 1.000000 }
			scale={ 1.000000 1.000000 1.000000 }
		}
		{
			id=1458
			position={ 2144.000000 0.000000 483.000000 }
			rotation={ -0.000000 -0.000000 -0.000000 1.000000 }
			scale={ 1.000000 1.000000 1.000000 }
		}
		{
			id=1519
			position={ 2001.000000 0.000000 162.000000 }
			rotation={ -0.000000 -0.000000 -0.000000 1.000000 }
			scale={ 1.000000 1.000000 1.000000 }
		}
		{
			id=1542
			position={ 2401.000000 0.000000 700.000000 }
			rotation={ -0.000000 -0.000000 -0.000000 1.000000 }
			scale={ 1.000000 1.000000 1.000000 }
		}
		{
			id=1555
			position={ 1986.000000 0.000000 184.000000 }
			rotation={ -0.000000 -0.000000 -0.000000 1.000000 }
			scale={ 1.000000 1.000000 1.000000 }
		}
		{
			id=1760
			position={ 2163.000000 0.000000 1311.000000 }
			rotation={ -0.000000 -0.000000 -0.000000 1.000000 }
			scale={ 1.000000 1.000000 1.000000 }
		}
		{
			id=1762
			position={ 2177.000000 0.000000 1290.000000 }
			rotation={ -0.000000 -0.000000 -0.000000 1.000000 }
			scale={ 1.000000 1.000000 1.000000 }
		}
		{
			id=1767
			position={ 2230.000000 0.000000 1222.000000 }
			rotation={ -0.000000 -0.000000 -0.000000 1.000000 }
			scale={ 1.000000 1.000000 1.000000 }
		}
		{
			id=1777
			position={ 2135.000000 0.000000 1345.000000 }
			rotation={ -0.000000 -0.000000 -0.000000 1.000000 }
			scale={ 1.000000 1.000000 1.000000 }
		}
		{
			id=1825
			position={ 2399.000000 0.000000 965.000000 }
			rotation={ -0.000000 -0.000000 -0.000000 1.000000 }
			scale={ 1.000000 1.000000 1.000000 }
		}
		{
			id=1830
			position={ 2109.000000 0.000000 1772.000000 }
			rotation={ -0.000000 -0.000000 -0.000000 1.000000 }
			scale={ 1.000000 1.000000 1.000000 }
		}
		{
			id=1841
			position={ 2110.000000 0.000000 1749.000000 }
			rotation={ -0.000000 -0.000000 -0.000000 1.000000 }
			scale={ 1.000000 1.000000 1.000000 }
		}
		{
			id=1848
			position={ 2112.000000 0.000000 1788.000000 }
			rotation={ -0.000000 -0.000000 -0.000000 1.000000 }
			scale={ 1.000000 1.000000 1.000000 }
		}
		{
			id=1888
			position={ 2216.000000 0.000000 1235.000000 }
			rotation={ -0.000000 -0.000000 -0.000000 1.000000 }
			scale={ 1.000000 1.000000 1.000000 }
		}
		{
			id=1894
			position={ 2206.000000 0.000000 1252.000000 }
			rotation={ -0.000000 -0.000000 -0.000000 1.000000 }
			scale={ 1.000000 1.000000 1.000000 }
		}
		{
			id=1895
			position={ 2392.000000 0.000000 1000.000000 }
			rotation={ -0.000000 -0.000000 -0.000000 1.000000 }
			scale={ 1.000000 1.000000 1.000000 }
		}
		{
			id=1935
			position={ 2335.000000 0.000000 1072.000000 }
			rotation={ -0.000000 -0.000000 -0.000000 1.000000 }
			scale={ 1.000000 1.000000 1.000000 }
		}
		{
			id=1939
			position={ 2378.000000 0.000000 1018.000000 }
			rotation={ -0.000000 -0.000000 -0.000000 1.000000 }
			scale={ 1.000000 1.000000 1.000000 }
		}
		{
			id=1941
			position={ 2321.000000 0.000000 1088.000000 }
			rotation={ -0.000000 -0.000000 -0.000000 1.000000 }
			scale={ 1.000000 1.000000 1.000000 }
		}
		{
			id=1946
			position={ 2353.000000 0.000000 1030.000000 }
			rotation={ -0.000000 -0.000000 -0.000000 1.000000 }
			scale={ 1.000000 1.000000 1.000000 }
		}
		{
			id=1947
			position={ 2344.000000 0.000000 1049.000000 }
			rotation={ -0.000000 -0.000000 -0.000000 1.000000 }
			scale={ 1.000000 1.000000 1.000000 }
		}
		{
			id=1951
			position={ 2399.000000 0.000000 937.000000 }
			rotation={ -0.000000 -0.000000 -0.000000 1.000000 }
			scale={ 1.000000 1.000000 1.000000 }
		}
		{
			id=1954
			position={ 1907.000000 0.000000 2030.000000 }
			rotation={ -0.000000 -0.000000 -0.000000 1.000000 }
			scale={ 1.000000 1.000000 1.000000 }
		}
		{
			id=1965
			position={ 2393.000000 0.000000 882.000000 }
			rotation={ -0.000000 -0.000000 -0.000000 1.000000 }
			scale={ 1.000000 1.000000 1.000000 }
		}
		{
			id=1968
			position={ 2400.000000 0.000000 907.000000 }
			rotation={ -0.000000 -0.000000 -0.000000 1.000000 }
			scale={ 1.000000 1.000000 1.000000 }
		}
		{
			id=2058
			position={ 2000.000000 0.000000 1987.000000 }
			rotation={ -0.000000 -0.000000 -0.000000 1.000000 }
			scale={ 1.000000 1.000000 1.000000 }
		}
		{
			id=2070
			position={ 2014.000000 0.000000 1973.000000 }
			rotation={ -0.000000 -0.000000 -0.000000 1.000000 }
			scale={ 1.000000 1.000000 1.000000 }
		}
		{
			id=2075
			position={ 2044.000000 0.000000 1946.000000 }
			rotation={ -0.000000 -0.000000 -0.000000 1.000000 }
			scale={ 1.000000 1.000000 1.000000 }
		}
		{
			id=2079
			position={ 1991.000000 0.000000 2003.000000 }
			rotation={ -0.000000 -0.000000 -0.000000 1.000000 }
			scale={ 1.000000 1.000000 1.000000 }
		}
		{
			id=2116
			position={ 1952.000000 0.000000 2025.000000 }
			rotation={ -0.000000 -0.000000 -0.000000 1.000000 }
			scale={ 1.000000 1.000000 1.000000 }
		}
		{
			id=2119
			position={ 1977.000000 0.000000 2015.000000 }
			rotation={ -0.000000 -0.000000 -0.000000 1.000000 }
			scale={ 1.000000 1.000000 1.000000 }
		}
		{
			id=2127
			position={ 2092.000000 0.000000 1872.000000 }
			rotation={ -0.000000 -0.000000 -0.000000 1.000000 }
			scale={ 1.000000 1.000000 1.000000 }
		}
		{
			id=2133
			position={ 2102.000000 0.000000 1854.000000 }
			rotation={ -0.000000 -0.000000 -0.000000 1.000000 }
			scale={ 1.000000 1.000000 1.000000 }
		}
		{
			id=2145
			position={ 2079.000000 0.000000 1890.000000 }
			rotation={ -0.000000 -0.000000 -0.000000 1.000000 }
			scale={ 1.000000 1.000000 1.000000 }
		}
		{
			id=2152
			position={ 2116.000000 0.000000 1805.000000 }
			rotation={ -0.000000 -0.000000 -0.000000 1.000000 }
			scale={ 1.000000 1.000000 1.000000 }
		}
		{
			id=2211
			position={ 2112.000000 0.000000 1833.000000 }
			rotation={ -0.000000 -0.000000 -0.000000 1.000000 }
			scale={ 1.000000 1.000000 1.000000 }
		}
		{
			id=2220
			position={ 2064.000000 0.000000 1908.000000 }
			rotation={ -0.000000 -0.000000 -0.000000 1.000000 }
			scale={ 1.000000 1.000000 1.000000 }
		}
		{
			id=2249
			position={ 1965.000000 0.000000 120.000000 }
			rotation={ -0.000000 -0.000000 -0.000000 1.000000 }
			scale={ 1.000000 1.000000 1.000000 }
		}
		{
			id=2255
			position={ 2082.000000 0.000000 383.000000 }
			rotation={ -0.000000 -0.000000 -0.000000 1.000000 }
			scale={ 1.000000 1.000000 1.000000 }
		}
		{
			id=2271
			position={ 1968.000000 0.000000 257.000000 }
			rotation={ -0.000000 -0.000000 -0.000000 1.000000 }
			scale={ 1.000000 1.000000 1.000000 }
		}
		{
			id=2336
			position={ 2027.000000 0.000000 351.000000 }
			rotation={ -0.000000 -0.000000 -0.000000 1.000000 }
			scale={ 1.000000 1.000000 1.000000 }
		}
		{
			id=2339
			position={ 2031.000000 0.000000 329.000000 }
			rotation={ -0.000000 -0.000000 -0.000000 1.000000 }
			scale={ 1.000000 1.000000 1.000000 }
		}
		{
			id=2343
			position={ 2044.000000 0.000000 364.000000 }
			rotation={ -0.000000 -0.000000 -0.000000 1.000000 }
			scale={ 1.000000 1.000000 1.000000 }
		}
		{
			id=2377
			position={ 2274.000000 0.000000 1181.000000 }
			rotation={ -0.000000 -0.000000 -0.000000 1.000000 }
			scale={ 1.000000 1.000000 1.000000 }
		}
		{
			id=2384
			position={ 2413.000000 0.000000 801.000000 }
			rotation={ -0.000000 -0.000000 -0.000000 1.000000 }
			scale={ 1.000000 1.000000 1.000000 }
		}
		{
			id=2387
			position={ 2415.000000 0.000000 782.000000 }
			rotation={ -0.000000 -0.000000 -0.000000 1.000000 }
			scale={ 1.000000 1.000000 1.000000 }
		}
		{
			id=2392
			position={ 2412.000000 0.000000 763.000000 }
			rotation={ -0.000000 -0.000000 -0.000000 1.000000 }
			scale={ 1.000000 1.000000 1.000000 }
		}
		{
			id=2397
			position={ 2413.000000 0.000000 740.000000 }
			rotation={ -0.000000 -0.000000 -0.000000 1.000000 }
			scale={ 1.000000 1.000000 1.000000 }
		}
		{
			id=2402
			position={ 2416.000000 0.000000 718.000000 }
			rotation={ -0.000000 -0.000000 -0.000000 1.000000 }
			scale={ 1.000000 1.000000 1.000000 }
		}
		{
			id=2409
			position={ 2387.000000 0.000000 676.000000 }
			rotation={ -0.000000 -0.000000 -0.000000 1.000000 }
			scale={ 1.000000 1.000000 1.000000 }
		}
		{
			id=2412
			position={ 2062.000000 0.000000 375.000000 }
			rotation={ -0.000000 -0.000000 -0.000000 1.000000 }
			scale={ 1.000000 1.000000 1.000000 }
		}
		{
			id=2414
			position={ 2082.000000 0.000000 403.000000 }
			rotation={ -0.000000 -0.000000 -0.000000 1.000000 }
			scale={ 1.000000 1.000000 1.000000 }
		}
		{
			id=2423
			position={ 2102.000000 0.000000 419.000000 }
			rotation={ -0.000000 -0.000000 -0.000000 1.000000 }
			scale={ 1.000000 1.000000 1.000000 }
		}
		{
			id=2438
			position={ 2216.000000 0.000000 560.000000 }
			rotation={ -0.000000 -0.000000 -0.000000 1.000000 }
			scale={ 1.000000 1.000000 1.000000 }
		}
		{
			id=2439
			position={ 2221.000000 0.000000 540.000000 }
			rotation={ -0.000000 -0.000000 -0.000000 1.000000 }
			scale={ 1.000000 1.000000 1.000000 }
		}
		{
			id=2440
			position={ 2194.000000 0.000000 544.000000 }
			rotation={ -0.000000 -0.000000 -0.000000 1.000000 }
			scale={ 1.000000 1.000000 1.000000 }
		}
		{
			id=2446
			position={ 2174.000000 0.000000 529.000000 }
			rotation={ -0.000000 -0.000000 -0.000000 1.000000 }
			scale={ 1.000000 1.000000 1.000000 }
		}
		{
			id=2456
			position={ 2279.000000 0.000000 619.000000 }
			rotation={ -0.000000 -0.000000 -0.000000 1.000000 }
			scale={ 1.000000 1.000000 1.000000 }
		}
		{
			id=2464
			position={ 2258.000000 0.000000 603.000000 }
			rotation={ -0.000000 -0.000000 -0.000000 1.000000 }
			scale={ 1.000000 1.000000 1.000000 }
		}
		{
			id=2468
			position={ 2235.000000 0.000000 573.000000 }
			rotation={ -0.000000 -0.000000 -0.000000 1.000000 }
			scale={ 1.000000 1.000000 1.000000 }
		}
		{
			id=2469
			position={ 2239.000000 0.000000 592.000000 }
			rotation={ -0.000000 -0.000000 -0.000000 1.000000 }
			scale={ 1.000000 1.000000 1.000000 }
		}
		{
			id=2520
			position={ 2011.000000 0.000000 293.000000 }
			rotation={ -0.000000 -0.000000 -0.000000 1.000000 }
			scale={ 1.000000 1.000000 1.000000 }
		}
		{
			id=2556
			position={ 1966.000000 0.000000 231.000000 }
			rotation={ -0.000000 -0.000000 -0.000000 1.000000 }
			scale={ 1.000000 1.000000 1.000000 }
		}
		{
			id=2561
			position={ 1973.000000 0.000000 206.000000 }
			rotation={ -0.000000 -0.000000 -0.000000 1.000000 }
			scale={ 1.000000 1.000000 1.000000 }
		}
		{
			id=2594
			position={ 2047.000000 0.000000 1652.000000 }
			rotation={ -0.000000 -0.000000 -0.000000 1.000000 }
			scale={ 1.000000 1.000000 1.000000 }
		}
		{
			id=2595
			position={ 2343.000000 0.000000 1128.000000 }
			rotation={ -0.000000 -0.000000 -0.000000 1.000000 }
			scale={ 1.000000 1.000000 1.000000 }
		}
		{
			id=2596
			position={ 2060.000000 0.000000 1698.000000 }
			rotation={ -0.000000 -0.000000 -0.000000 1.000000 }
			scale={ 1.000000 1.000000 1.000000 }
		}
		{
			id=2599
			position={ 2365.000000 0.000000 1145.000000 }
			rotation={ -0.000000 -0.000000 -0.000000 1.000000 }
			scale={ 1.000000 1.000000 1.000000 }
		}
		{
			id=2602
			position={ 2056.000000 0.000000 1677.000000 }
			rotation={ -0.000000 -0.000000 -0.000000 1.000000 }
			scale={ 1.000000 1.000000 1.000000 }
		}
		{
			id=2605
			position={ 2367.000000 0.000000 1178.000000 }
			rotation={ -0.000000 -0.000000 -0.000000 1.000000 }
			scale={ 1.000000 1.000000 1.000000 }
		}
		{
			id=2607
			position={ 2378.000000 0.000000 1164.000000 }
			rotation={ -0.000000 -0.000000 -0.000000 1.000000 }
			scale={ 1.000000 1.000000 1.000000 }
		}
		{
			id=2609
			position={ 2315.000000 0.000000 1158.000000 }
			rotation={ -0.000000 -0.000000 -0.000000 1.000000 }
			scale={ 1.000000 1.000000 1.000000 }
		}
		{
			id=2611
			position={ 2326.000000 0.000000 1112.000000 }
			rotation={ -0.000000 -0.000000 -0.000000 1.000000 }
			scale={ 1.000000 1.000000 1.000000 }
		}
		{
			id=2614
			position={ 2340.000000 0.000000 1171.000000 }
			rotation={ -0.000000 -0.000000 -0.000000 1.000000 }
			scale={ 1.000000 1.000000 1.000000 }
		}
		{
			id=2615
			position={ 2290.000000 0.000000 1163.000000 }
			rotation={ -0.000000 -0.000000 -0.000000 1.000000 }
			scale={ 1.000000 1.000000 1.000000 }
		}
		{
			id=2617
			position={ 2039.000000 0.000000 1614.000000 }
			rotation={ -0.000000 -0.000000 -0.000000 1.000000 }
			scale={ 1.000000 1.000000 1.000000 }
		}
		{
			id=2619
			position={ 2041.000000 0.000000 1633.000000 }
			rotation={ -0.000000 -0.000000 -0.000000 1.000000 }
			scale={ 1.000000 1.000000 1.000000 }
		}
		{
			id=2621
			position={ 2240.000000 0.000000 1205.000000 }
			rotation={ -0.000000 -0.000000 -0.000000 1.000000 }
			scale={ 1.000000 1.000000 1.000000 }
		}
		{
			id=2622
			position={ 2255.000000 0.000000 1193.000000 }
			rotation={ -0.000000 -0.000000 -0.000000 1.000000 }
			scale={ 1.000000 1.000000 1.000000 }
		}
		{
			id=2657
			position={ 2035.000000 0.000000 1966.000000 }
			rotation={ -0.000000 -0.000000 -0.000000 1.000000 }
			scale={ 1.000000 1.000000 1.000000 }
		}
		{
			id=3205
			position={ 2011.000000 0.000000 316.000000 }
			rotation={ -0.000000 -0.000000 -0.000000 1.000000 }
			scale={ 1.000000 1.000000 1.000000 }
		}
		{
			id=4514
			position={ 2134.000000 0.000000 2109.000000 }
			rotation={ -0.000000 -0.000000 -0.000000 1.000000 }
			scale={ 1.000000 1.000000 1.000000 }
		}
		{
			id=4588
			position={ 2341.000000 0.000000 2034.000000 }
			rotation={ -0.000000 -0.000000 -0.000000 1.000000 }
			scale={ 1.000000 1.000000 1.000000 }
		}
		{
			id=4592
			position={ 2064.000000 0.000000 1983.000000 }
			rotation={ -0.000000 -0.000000 -0.000000 1.000000 }
			scale={ 1.000000 1.000000 1.000000 }
		}
		{
			id=4611
			position={ 1915.000000 0.000000 2075.000000 }
			rotation={ -0.000000 -0.000000 -0.000000 1.000000 }
			scale={ 1.000000 1.000000 1.000000 }
		}
		{
			id=4692
			position={ 2389.000000 0.000000 858.000000 }
			rotation={ -0.000000 -0.000000 -0.000000 1.000000 }
			scale={ 1.000000 1.000000 1.000000 }
		}
		{
			id=4693
			position={ 2391.000000 0.000000 836.000000 }
			rotation={ -0.000000 -0.000000 -0.000000 1.000000 }
			scale={ 1.000000 1.000000 1.000000 }
		}
		{
			id=4701
			position={ 2652.000000 0.000000 1199.000000 }
			rotation={ -0.000000 -0.000000 -0.000000 1.000000 }
			scale={ 1.000000 1.000000 1.000000 }
		}
		{
			id=4904
			position={ 523.000000 0.000000 2359.000000 }
			rotation={ -0.000000 -0.000000 -0.000000 1.000000 }
			scale={ 1.000000 1.000000 1.000000 }
		}
	}
}
