object={
	name="lakes"
	clamp_to_water_level=no
	render_under_water=no
	generated_content=no
	layer="lake_layer"
	pdxmesh="lake_mesh"
	count=25
	transform="5698.035645 0.000000 1788.487427 0.000000 0.262336 0.000000 0.964977 28.308453 28.308453 28.308453
6027.931641 0.000000 1777.748413 0.000000 0.139255 0.000000 0.990256 121.409050 121.409050 121.409050
2889.449219 0.000000 2370.928955 -0.000000 0.513803 -0.000000 0.857908 34.410446 34.410446 34.410446
3242.406006 0.000000 2920.612305 -0.000000 -0.635621 -0.000000 0.772001 41.930130 41.930130 41.930130
1900.275757 0.000000 3220.034424 -0.000000 -0.182354 -0.000000 0.983233 19.057524 19.057524 19.057524
1923.825684 0.000000 3179.733887 -0.000000 0.116131 -0.000000 0.993234 10.769200 10.769200 10.769200
2194.120605 0.000000 3230.263672 -0.000000 0.471640 -0.000000 0.881791 74.884453 74.884453 74.884453
1863.022095 0.000000 3175.723633 -0.000000 -0.096620 -0.000000 0.995321 15.445815 15.445815 15.445815
1958.094604 0.000000 3200.445801 -0.000000 0.211069 0.000000 -0.977471 32.146439 32.146439 32.146439
1591.205200 0.000000 3362.236328 -0.000000 0.964681 -0.000000 0.263421 25.483078 25.483078 25.483078
345.749725 0.000000 3545.013672 -0.000000 -0.000000 -0.000000 1.000000 1.000000 1.000000 1.000000
426.863403 0.000000 3688.872314 -0.000000 0.999561 -0.000000 -0.029637 16.748085 16.748085 16.748085
375.960999 0.000000 3739.492188 -0.000000 0.647130 -0.000000 -0.762379 59.761566 59.761566 59.761566
795.749573 0.000000 3719.350830 -0.000000 0.064477 -0.000000 0.997919 27.636232 27.636232 27.636232
742.641602 0.000000 3720.813721 -0.000000 -0.789866 -0.000000 0.613279 20.969973 20.969973 20.969973
667.037720 0.000000 3816.055176 -0.000000 -0.789866 -0.000000 0.613279 20.969973 20.969973 20.969973
336.582367 0.000000 3771.321777 -0.000000 0.990271 -0.000000 -0.139151 54.142719 54.142719 54.142719
781.060120 0.000000 3328.693359 -0.000000 -0.971614 -0.000000 -0.236570 8.780802 8.780802 8.780802
908.018433 0.000000 3324.085693 -0.000000 -0.385004 -0.000000 -0.922915 11.086960 11.086960 11.086960
764.808472 0.000000 3317.637939 -0.000000 -0.922668 -0.000000 0.385597 15.618326 15.618326 15.618326
343.685059 0.000000 3545.529297 -0.000000 0.602414 -0.000000 0.798184 20.001837 20.001837 20.001837
406.637451 0.000000 3380.828125 -0.000000 -0.776117 -0.000000 0.630589 21.479996 21.479996 21.479996
707.942017 0.000000 3333.742432 -0.000000 -0.992859 -0.000000 0.119294 47.658257 47.658257 47.658257
687.554016 0.000000 3509.378174 -0.000000 0.972212 -0.000000 -0.234102 14.497252 14.497252 14.497252
497.909698 0.000000 3728.948730 -0.000000 -0.473526 -0.000000 0.880780 35.928440 35.928440 35.928440
"}
